lab_2/data/SDS00003.csv

Record Length,Analog:7000
Sample Interval,CH1:0.0000040000000 CH2:0.0000040000000
Vertical Units,CH1:V CH2:V,,,
Vertical Scale,CH1:0.01 CH2:0.50,,,
Vertical Offset,CH1:0.00160 CH2:-0.42000,,,
Horizontal Units,us,,,
Horizontal Scale,2000.0000000000,,,
Model Number,T3DSO1204 ,,,
Serial Number,T0101C19080606,,,
Software Version,8.1.6.1.26,,,
Source,CH1,CH2
Second,Volt,Volt
 0.00000000000,-0.00080,-1.10000
 0.00000400000,-0.00080,-1.08000
 0.00000800000,-0.00080,-1.08000
 0.00001200000,-0.00080,-1.08000
 0.00001600000,-0.00080,-1.08000
 0.00002000000,-0.00080,-1.08000
 0.00002400000,-0.00040,-1.08000
 0.00002800000,-0.00040,-1.10000
 0.00003200000,-0.00040,-1.10000
 0.00003600000,-0.00040,-1.10000
 0.00004000000,-0.00040,-1.10000
 0.00004400000,-0.00040,-1.08000
 0.00004800000,-0.00040,-1.10000
 0.00005200000,0.00,-1.10000
 0.00005600000,0.00,-1.10000
 0.00006000000,0.00,-1.10000
 0.00006400000,0.00,-1.10000
 0.00006800000,0.00,-1.10000
 0.00007200000,0.00,-1.10000
 0.00007600000,0.00040,-1.10000
 0.00008000000,0.00040,-1.10000
 0.00008400000,0.00040,-1.10000
 0.00008800000,0.00040,-1.10000
 0.00009200000,0.00040,-1.10000
 0.00009600000,0.00080,-1.10000
 0.00010000000,0.00080,-1.08000
 0.00010400000,0.00080,-1.10000
 0.00010800000,0.00080,-1.10000
 0.00011200000,0.00080,-1.10000
 0.00011600000,0.00080,-1.10000
 0.00012000000,0.00080,-1.10000
 0.00012400000,0.00080,-1.10000
 0.00012800000,0.00080,-1.10000
 0.00013200000,0.00080,-1.10000
 0.00013600000,0.00080,-1.10000
 0.00014000000,0.00080,-1.10000
 0.00014400000,0.00080,-1.10000
 0.00014800000,0.00080,-1.10000
 0.00015200000,0.00120,-1.12000
 0.00015600000,0.00120,-1.12000
 0.00016000000,0.00120,-1.10000
 0.00016400000,0.00120,-1.12000
 0.00016800000,0.00120,-1.12000
 0.00017200000,0.00120,-1.12000
 0.00017600000,0.00120,-1.12000
 0.00018000000,0.00120,-1.12000
 0.00018400000,0.00160,-1.12000
 0.00018800000,0.00160,-1.12000
 0.00019200000,0.00160,-1.12000
 0.00019600000,0.00160,-1.10000
 0.00020000000,0.00160,-1.12000
 0.00020400000,0.00160,-1.10000
 0.00020800000,0.00160,-1.12000
 0.00021200000,0.00160,-1.12000
 0.00021600000,0.00160,-1.12000
 0.00022000000,0.00160,-1.12000
 0.00022400000,0.00200,-1.12000
 0.00022800000,0.00200,-1.12000
 0.00023200000,0.00200,-1.12000
 0.00023600000,0.00200,-1.12000
 0.00024000000,0.00200,-1.12000
 0.00024400000,0.00200,-1.10000
 0.00024800000,0.00200,-1.10000
 0.00025200000,0.00200,-1.10000
 0.00025600000,0.00200,-1.12000
 0.00026000000,0.00200,-1.12000
 0.00026400000,0.00200,-1.10000
 0.00026800000,0.00240,-1.12000
 0.00027200000,0.00240,-1.12000
 0.00027600000,0.00240,-1.12000
 0.00028000000,0.00240,-1.12000
 0.00028400000,0.00240,-1.12000
 0.00028800000,0.00240,-1.14000
 0.00029200000,0.00240,-1.12000
 0.00029600000,0.00240,-1.14000
 0.00030000000,0.00240,-1.14000
 0.00030400000,0.00240,-1.14000
 0.00030800000,0.00240,-1.14000
 0.00031200000,0.00240,-1.14000
 0.00031600000,0.00240,-1.12000
 0.00032000000,0.00280,-1.14000
 0.00032400000,0.00280,-1.12000
 0.00032800000,0.00280,-1.14000
 0.00033200000,0.00280,-1.12000
 0.00033600000,0.00280,-1.14000
 0.00034000000,0.00280,-1.12000
 0.00034400000,0.00280,-1.12000
 0.00034800000,0.00280,-1.14000
 0.00035200000,0.00280,-1.14000
 0.00035600000,0.00280,-1.14000
 0.00036000000,0.00280,-1.14000
 0.00036400000,0.00240,-1.14000
 0.00036800000,0.00240,-1.14000
 0.00037200000,0.00280,-1.12000
 0.00037600000,0.00280,-1.14000
 0.00038000000,0.00280,-1.14000
 0.00038400000,0.00320,-1.14000
 0.00038800000,0.00320,-1.12000
 0.00039200000,0.00320,-1.14000
 0.00039600000,0.00360,-1.14000
 0.00040000000,0.00320,-1.14000
 0.00040400000,0.00360,-1.14000
 0.00040800000,0.00360,-1.14000
 0.00041200000,0.00360,-1.16000
 0.00041600000,0.00360,-1.16000
 0.00042000000,0.00360,-1.14000
 0.00042400000,0.00360,-1.14000
 0.00042800000,0.00360,-1.14000
 0.00043200000,0.00360,-1.16000
 0.00043600000,0.00400,-1.14000
 0.00044000000,0.00400,-1.16000
 0.00044400000,0.00360,-1.16000
 0.00044800000,0.00400,-1.14000
 0.00045200000,0.00360,-1.16000
 0.00045600000,0.00400,-1.16000
 0.00046000000,0.00360,-1.14000
 0.00046400000,0.00400,-1.16000
 0.00046800000,0.00360,-1.16000
 0.00047200000,0.00400,-1.16000
 0.00047600000,0.00400,-1.16000
 0.00048000000,0.00360,-1.16000
 0.00048400000,0.00360,-1.16000
 0.00048800000,0.00360,-1.16000
 0.00049200000,0.00360,-1.14000
 0.00049600000,0.00400,-1.16000
 0.00050000000,0.00400,-1.16000
 0.00050400000,0.00400,-1.14000
 0.00050800000,0.00400,-1.16000
 0.00051200000,0.00400,-1.16000
 0.00051600000,0.00400,-1.16000
 0.00052000000,0.00400,-1.16000
 0.00052400000,0.00400,-1.16000
 0.00052800000,0.00400,-1.16000
 0.00053200000,0.00440,-1.16000
 0.00053600000,0.00440,-1.16000
 0.00054000000,0.00440,-1.16000
 0.00054400000,0.00440,-1.16000
 0.00054800000,0.00440,-1.16000
 0.00055200000,0.00440,-1.18000
 0.00055600000,0.00480,-1.18000
 0.00056000000,0.00440,-1.16000
 0.00056400000,0.00440,-1.16000
 0.00056800000,0.00440,-1.18000
 0.00057200000,0.00480,-1.18000
 0.00057600000,0.00480,-1.18000
 0.00058000000,0.00480,-1.16000
 0.00058400000,0.00480,-1.16000
 0.00058800000,0.00480,-1.18000
 0.00059200000,0.00480,-1.16000
 0.00059600000,0.00480,-1.16000
 0.00060000000,0.00480,-1.18000
 0.00060400000,0.00480,-1.18000
 0.00060800000,0.00480,-1.18000
 0.00061200000,0.00520,-1.16000
 0.00061600000,0.00520,-1.18000
 0.00062000000,0.00520,-1.18000
 0.00062400000,0.00520,-1.18000
 0.00062800000,0.00520,-1.16000
 0.00063200000,0.00520,-1.16000
 0.00063600000,0.00480,-1.18000
 0.00064000000,0.00480,-1.18000
 0.00064400000,0.00480,-1.16000
 0.00064800000,0.00520,-1.18000
 0.00065200000,0.00520,-1.18000
 0.00065600000,0.00520,-1.18000
 0.00066000000,0.00520,-1.18000
 0.00066400000,0.00520,-1.18000
 0.00066800000,0.00520,-1.18000
 0.00067200000,0.00520,-1.18000
 0.00067600000,0.00520,-1.18000
 0.00068000000,0.00520,-1.18000
 0.00068400000,0.00520,-1.18000
 0.00068800000,0.00520,-1.18000
 0.00069200000,0.00520,-1.18000
 0.00069600000,0.00520,-1.18000
 0.00070000000,0.00520,-1.20000
 0.00070400000,0.00560,-1.18000
 0.00070800000,0.00560,-1.18000
 0.00071200000,0.00560,-1.20000
 0.00071600000,0.00560,-1.20000
 0.00072000000,0.00560,-1.20000
 0.00072400000,0.00560,-1.20000
 0.00072800000,0.00560,-1.20000
 0.00073200000,0.00560,-1.20000
 0.00073600000,0.00560,-1.20000
 0.00074000000,0.00560,-1.20000
 0.00074400000,0.00560,-1.18000
 0.00074800000,0.00560,-1.20000
 0.00075200000,0.00560,-1.20000
 0.00075600000,0.00560,-1.20000
 0.00076000000,0.00560,-1.20000
 0.00076400000,0.00600,-1.18000
 0.00076800000,0.00600,-1.18000
 0.00077200000,0.00600,-1.18000
 0.00077600000,0.00600,-1.18000
 0.00078000000,0.00600,-1.20000
 0.00078400000,0.00600,-1.18000
 0.00078800000,0.00600,-1.18000
 0.00079200000,0.00560,-1.20000
 0.00079600000,0.00560,-1.20000
 0.00080000000,0.00600,-1.20000
 0.00080400000,0.00560,-1.20000
 0.00080800000,0.00560,-1.18000
 0.00081200000,0.00600,-1.20000
 0.00081600000,0.00560,-1.20000
 0.00082000000,0.00560,-1.20000
 0.00082400000,0.00560,-1.20000
 0.00082800000,0.00560,-1.20000
 0.00083200000,0.00560,-1.22000
 0.00083600000,0.00560,-1.20000
 0.00084000000,0.00560,-1.20000
 0.00084400000,0.00560,-1.20000
 0.00084800000,0.00560,-1.22000
 0.00085200000,0.00560,-1.22000
 0.00085600000,0.00600,-1.22000
 0.00086000000,0.00600,-1.20000
 0.00086400000,0.00600,-1.22000
 0.00086800000,0.00600,-1.22000
 0.00087200000,0.00600,-1.22000
 0.00087600000,0.00600,-1.22000
 0.00088000000,0.00600,-1.22000
 0.00088400000,0.00600,-1.22000
 0.00088800000,0.00600,-1.22000
 0.00089200000,0.00600,-1.20000
 0.00089600000,0.00600,-1.22000
 0.00090000000,0.00600,-1.20000
 0.00090400000,0.00600,-1.22000
 0.00090800000,0.00600,-1.22000
 0.00091200000,0.00600,-1.20000
 0.00091600000,0.00600,-1.20000
 0.00092000000,0.00600,-1.22000
 0.00092400000,0.00600,-1.22000
 0.00092800000,0.00600,-1.22000
 0.00093200000,0.00640,-1.22000
 0.00093600000,0.00600,-1.22000
 0.00094000000,0.00600,-1.22000
 0.00094400000,0.00600,-1.22000
 0.00094800000,0.00600,-1.22000
 0.00095200000,0.00600,-1.22000
 0.00095600000,0.00600,-1.22000
 0.00096000000,0.00600,-1.22000
 0.00096400000,0.00600,-1.24000
 0.00096800000,0.00600,-1.22000
 0.00097200000,0.00600,-1.22000
 0.00097600000,0.00600,-1.22000
 0.00098000000,0.00600,-1.24000
 0.00098400000,0.00600,-1.24000
 0.00098800000,0.00600,-1.24000
 0.00099200000,0.00600,-1.24000
 0.00099600000,0.00600,-1.22000
 0.00100000000,0.00600,-1.22000
 0.00100400000,0.00640,-1.24000
 0.00100800000,0.00600,-1.22000
 0.00101200000,0.00600,-1.22000
 0.00101600000,0.00640,-1.24000
 0.00102000000,0.00640,-1.24000
 0.00102400000,0.00640,-1.24000
 0.00102800000,0.00640,-1.24000
 0.00103200000,0.00640,-1.22000
 0.00103600000,0.00600,-1.24000
 0.00104000000,0.00600,-1.24000
 0.00104400000,0.00640,-1.24000
 0.00104800000,0.00640,-1.24000
 0.00105200000,0.00640,-1.24000
 0.00105600000,0.00640,-1.24000
 0.00106000000,0.00640,-1.24000
 0.00106400000,0.00640,-1.24000
 0.00106800000,0.00640,-1.24000
 0.00107200000,0.00640,-1.24000
 0.00107600000,0.00640,-1.24000
 0.00108000000,0.00640,-1.24000
 0.00108400000,0.00640,-1.24000
 0.00108800000,0.00640,-1.22000
 0.00109200000,0.00640,-1.24000
 0.00109600000,0.00640,-1.24000
 0.00110000000,0.00600,-1.24000
 0.00110400000,0.00600,-1.24000
 0.00110800000,0.00600,-1.24000
 0.00111200000,0.00600,-1.26000
 0.00111600000,0.00600,-1.24000
 0.00112000000,0.00600,-1.24000
 0.00112400000,0.00600,-1.24000
 0.00112800000,0.00600,-1.24000
 0.00113200000,0.00600,-1.26000
 0.00113600000,0.00600,-1.26000
 0.00114000000,0.00600,-1.26000
 0.00114400000,0.00600,-1.26000
 0.00114800000,0.00600,-1.26000
 0.00115200000,0.00600,-1.26000
 0.00115600000,0.00600,-1.26000
 0.00116000000,0.00560,-1.26000
 0.00116400000,0.00560,-1.26000
 0.00116800000,0.00560,-1.26000
 0.00117200000,0.00560,-1.26000
 0.00117600000,0.00560,-1.26000
 0.00118000000,0.00600,-1.26000
 0.00118400000,0.00600,-1.26000
 0.00118800000,0.00600,-1.26000
 0.00119200000,0.00600,-1.26000
 0.00119600000,0.00560,-1.26000
 0.00120000000,0.00600,-1.26000
 0.00120400000,0.00600,-1.26000
 0.00120800000,0.00600,-1.24000
 0.00121200000,0.00600,-1.24000
 0.00121600000,0.00600,-1.26000
 0.00122000000,0.00600,-1.26000
 0.00122400000,0.00640,-1.24000
 0.00122800000,0.00640,-1.26000
 0.00123200000,0.00600,-1.24000
 0.00123600000,0.00600,-1.26000
 0.00124000000,0.00600,-1.26000
 0.00124400000,0.00600,-1.26000
 0.00124800000,0.00600,-1.26000
 0.00125200000,0.00600,-1.28000
 0.00125600000,0.00600,-1.28000
 0.00126000000,0.00600,-1.26000
 0.00126400000,0.00600,-1.28000
 0.00126800000,0.00600,-1.26000
 0.00127200000,0.00600,-1.26000
 0.00127600000,0.00600,-1.28000
 0.00128000000,0.00600,-1.28000
 0.00128400000,0.00600,-1.28000
 0.00128800000,0.00600,-1.28000
 0.00129200000,0.00600,-1.28000
 0.00129600000,0.00600,-1.26000
 0.00130000000,0.00560,-1.28000
 0.00130400000,0.00560,-1.28000
 0.00130800000,0.00560,-1.28000
 0.00131200000,0.00600,-1.28000
 0.00131600000,0.00560,-1.28000
 0.00132000000,0.00560,-1.28000
 0.00132400000,0.00560,-1.28000
 0.00132800000,0.00560,-1.28000
 0.00133200000,0.00560,-1.26000
 0.00133600000,0.00560,-1.28000
 0.00134000000,0.00560,-1.28000
 0.00134400000,0.00560,-1.26000
 0.00134800000,0.00560,-1.26000
 0.00135200000,0.00560,-1.28000
 0.00135600000,0.00560,-1.28000
 0.00136000000,0.00560,-1.28000
 0.00136400000,0.00560,-1.28000
 0.00136800000,0.00560,-1.26000
 0.00137200000,0.00560,-1.28000
 0.00137600000,0.00560,-1.28000
 0.00138000000,0.00520,-1.28000
 0.00138400000,0.00520,-1.28000
 0.00138800000,0.00520,-1.28000
 0.00139200000,0.00520,-1.28000
 0.00139600000,0.00520,-1.28000
 0.00140000000,0.00520,-1.30000
 0.00140400000,0.00520,-1.28000
 0.00140800000,0.00520,-1.30000
 0.00141200000,0.00520,-1.28000
 0.00141600000,0.00520,-1.30000
 0.00142000000,0.00520,-1.28000
 0.00142400000,0.00520,-1.30000
 0.00142800000,0.00520,-1.30000
 0.00143200000,0.00520,-1.28000
 0.00143600000,0.00520,-1.30000
 0.00144000000,0.00520,-1.28000
 0.00144400000,0.00520,-1.30000
 0.00144800000,0.00480,-1.30000
 0.00145200000,0.00480,-1.30000
 0.00145600000,0.00480,-1.30000
 0.00146000000,0.00440,-1.30000
 0.00146400000,0.00480,-1.30000
 0.00146800000,0.00480,-1.30000
 0.00147200000,0.00480,-1.30000
 0.00147600000,0.00480,-1.30000
 0.00148000000,0.00520,-1.30000
 0.00148400000,0.00480,-1.30000
 0.00148800000,0.00520,-1.30000
 0.00149200000,0.00480,-1.30000
 0.00149600000,0.00480,-1.30000
 0.00150000000,0.00440,-1.30000
 0.00150400000,0.00440,-1.30000
 0.00150800000,0.00440,-1.30000
 0.00151200000,0.00440,-1.30000
 0.00151600000,0.00440,-1.30000
 0.00152000000,0.00440,-1.30000
 0.00152400000,0.00440,-1.30000
 0.00152800000,0.00440,-1.32000
 0.00153200000,0.00440,-1.30000
 0.00153600000,0.00440,-1.30000
 0.00154000000,0.00440,-1.32000
 0.00154400000,0.00400,-1.30000
 0.00154800000,0.00320,-1.30000
 0.00155200000,0.00280,-1.30000
 0.00155600000,0.00240,-1.30000
 0.00156000000,0.00240,-1.30000
 0.00156400000,0.00240,-1.30000
 0.00156800000,0.00240,-1.30000
 0.00157200000,0.00280,-1.30000
 0.00157600000,0.00280,-1.30000
 0.00158000000,0.00320,-1.28000
 0.00158400000,0.00360,-1.30000
 0.00158800000,0.00360,-1.28000
 0.00159200000,0.00400,-1.30000
 0.00159600000,0.00440,-1.30000
 0.00160000000,0.00440,-1.30000
 0.00160400000,0.00440,-1.28000
 0.00160800000,0.00440,-1.30000
 0.00161200000,0.00440,-1.28000
 0.00161600000,0.00440,-1.28000
 0.00162000000,0.00440,-1.30000
 0.00162400000,0.00440,-1.28000
 0.00162800000,0.00440,-1.30000
 0.00163200000,0.00480,-1.28000
 0.00163600000,0.00480,-1.30000
 0.00164000000,0.00480,-1.28000
 0.00164400000,0.00480,-1.30000
 0.00164800000,0.00480,-1.30000
 0.00165200000,0.00520,-1.30000
 0.00165600000,0.00520,-1.30000
 0.00166000000,0.00520,-1.28000
 0.00166400000,0.00520,-1.28000
 0.00166800000,0.00520,-1.28000
 0.00167200000,0.00520,-1.28000
 0.00167600000,0.00520,-1.28000
 0.00168000000,0.00520,-1.28000
 0.00168400000,0.00520,-1.28000
 0.00168800000,0.00520,-1.28000
 0.00169200000,0.00520,-1.28000
 0.00169600000,0.00520,-1.28000
 0.00170000000,0.00520,-1.26000
 0.00170400000,0.00520,-1.28000
 0.00170800000,0.00520,-1.28000
 0.00171200000,0.00520,-1.28000
 0.00171600000,0.00560,-1.28000
 0.00172000000,0.00560,-1.28000
 0.00172400000,0.00560,-1.28000
 0.00172800000,0.00560,-1.28000
 0.00173200000,0.00520,-1.28000
 0.00173600000,0.00520,-1.28000
 0.00174000000,0.00520,-1.26000
 0.00174400000,0.00520,-1.28000
 0.00174800000,0.00560,-1.28000
 0.00175200000,0.00560,-1.26000
 0.00175600000,0.00560,-1.28000
 0.00176000000,0.00560,-1.26000
 0.00176400000,0.00560,-1.26000
 0.00176800000,0.00560,-1.28000
 0.00177200000,0.00560,-1.28000
 0.00177600000,0.00560,-1.26000
 0.00178000000,0.00600,-1.26000
 0.00178400000,0.00600,-1.26000
 0.00178800000,0.00600,-1.26000
 0.00179200000,0.00600,-1.26000
 0.00179600000,0.00600,-1.26000
 0.00180000000,0.00600,-1.26000
 0.00180400000,0.00560,-1.26000
 0.00180800000,0.00600,-1.26000
 0.00181200000,0.00600,-1.24000
 0.00181600000,0.00600,-1.26000
 0.00182000000,0.00600,-1.24000
 0.00182400000,0.00600,-1.26000
 0.00182800000,0.00600,-1.24000
 0.00183200000,0.00600,-1.26000
 0.00183600000,0.00600,-1.24000
 0.00184000000,0.00600,-1.26000
 0.00184400000,0.00600,-1.26000
 0.00184800000,0.00600,-1.26000
 0.00185200000,0.00600,-1.24000
 0.00185600000,0.00600,-1.26000
 0.00186000000,0.00600,-1.26000
 0.00186400000,0.00600,-1.26000
 0.00186800000,0.00600,-1.26000
 0.00187200000,0.00600,-1.26000
 0.00187600000,0.00600,-1.26000
 0.00188000000,0.00600,-1.26000
 0.00188400000,0.00600,-1.24000
 0.00188800000,0.00600,-1.26000
 0.00189200000,0.00600,-1.26000
 0.00189600000,0.00600,-1.26000
 0.00190000000,0.00600,-1.24000
 0.00190400000,0.00600,-1.26000
 0.00190800000,0.00600,-1.24000
 0.00191200000,0.00600,-1.24000
 0.00191600000,0.00640,-1.24000
 0.00192000000,0.00640,-1.24000
 0.00192400000,0.00640,-1.24000
 0.00192800000,0.00640,-1.24000
 0.00193200000,0.00640,-1.24000
 0.00193600000,0.00640,-1.24000
 0.00194000000,0.00640,-1.24000
 0.00194400000,0.00640,-1.22000
 0.00194800000,0.00640,-1.24000
 0.00195200000,0.00640,-1.24000
 0.00195600000,0.00600,-1.24000
 0.00196000000,0.00600,-1.24000
 0.00196400000,0.00600,-1.24000
 0.00196800000,0.00640,-1.24000
 0.00197200000,0.00680,-1.24000
 0.00197600000,0.00680,-1.24000
 0.00198000000,0.00680,-1.24000
 0.00198400000,0.00680,-1.24000
 0.00198800000,0.00680,-1.22000
 0.00199200000,0.00640,-1.24000
 0.00199600000,0.00640,-1.24000
 0.00200000000,0.00640,-1.24000
 0.00200400000,0.00640,-1.24000
 0.00200800000,0.00640,-1.22000
 0.00201200000,0.00640,-1.22000
 0.00201600000,0.00640,-1.22000
 0.00202000000,0.00600,-1.22000
 0.00202400000,0.00600,-1.22000
 0.00202800000,0.00600,-1.22000
 0.00203200000,0.00600,-1.22000
 0.00203600000,0.00600,-1.22000
 0.00204000000,0.00600,-1.22000
 0.00204400000,0.00600,-1.22000
 0.00204800000,0.00600,-1.22000
 0.00205200000,0.00560,-1.22000
 0.00205600000,0.00560,-1.22000
 0.00206000000,0.00560,-1.22000
 0.00206400000,0.00560,-1.20000
 0.00206800000,0.00560,-1.20000
 0.00207200000,0.00560,-1.22000
 0.00207600000,0.00560,-1.22000
 0.00208000000,0.00600,-1.20000
 0.00208400000,0.00600,-1.20000
 0.00208800000,0.00600,-1.22000
 0.00209200000,0.00600,-1.22000
 0.00209600000,0.00600,-1.22000
 0.00210000000,0.00600,-1.22000
 0.00210400000,0.00600,-1.22000
 0.00210800000,0.00600,-1.22000
 0.00211200000,0.00600,-1.22000
 0.00211600000,0.00600,-1.22000
 0.00212000000,0.00600,-1.22000
 0.00212400000,0.00600,-1.22000
 0.00212800000,0.00600,-1.22000
 0.00213200000,0.00600,-1.20000
 0.00213600000,0.00560,-1.20000
 0.00214000000,0.00600,-1.20000
 0.00214400000,0.00560,-1.20000
 0.00214800000,0.00600,-1.20000
 0.00215200000,0.00600,-1.20000
 0.00215600000,0.00600,-1.20000
 0.00216000000,0.00600,-1.20000
 0.00216400000,0.00600,-1.20000
 0.00216800000,0.00600,-1.20000
 0.00217200000,0.00600,-1.20000
 0.00217600000,0.00600,-1.20000
 0.00218000000,0.00600,-1.18000
 0.00218400000,0.00600,-1.20000
 0.00218800000,0.00600,-1.20000
 0.00219200000,0.00600,-1.20000
 0.00219600000,0.00560,-1.18000
 0.00220000000,0.00560,-1.20000
 0.00220400000,0.00560,-1.18000
 0.00220800000,0.00560,-1.20000
 0.00221200000,0.00560,-1.20000
 0.00221600000,0.00560,-1.18000
 0.00222000000,0.00600,-1.20000
 0.00222400000,0.00600,-1.18000
 0.00222800000,0.00560,-1.20000
 0.00223200000,0.00560,-1.18000
 0.00223600000,0.00560,-1.20000
 0.00224000000,0.00520,-1.20000
 0.00224400000,0.00520,-1.18000
 0.00224800000,0.00520,-1.20000
 0.00225200000,0.00520,-1.20000
 0.00225600000,0.00520,-1.20000
 0.00226000000,0.00560,-1.18000
 0.00226400000,0.00560,-1.20000
 0.00226800000,0.00520,-1.18000
 0.00227200000,0.00520,-1.20000
 0.00227600000,0.00520,-1.18000
 0.00228000000,0.00560,-1.20000
 0.00228400000,0.00560,-1.18000
 0.00228800000,0.00520,-1.18000
 0.00229200000,0.00520,-1.18000
 0.00229600000,0.00520,-1.18000
 0.00230000000,0.00520,-1.18000
 0.00230400000,0.00520,-1.16000
 0.00230800000,0.00520,-1.18000
 0.00231200000,0.00480,-1.18000
 0.00231600000,0.00520,-1.18000
 0.00232000000,0.00520,-1.18000
 0.00232400000,0.00520,-1.18000
 0.00232800000,0.00520,-1.18000
 0.00233200000,0.00520,-1.18000
 0.00233600000,0.00520,-1.18000
 0.00234000000,0.00480,-1.18000
 0.00234400000,0.00480,-1.18000
 0.00234800000,0.00480,-1.18000
 0.00235200000,0.00480,-1.16000
 0.00235600000,0.00480,-1.18000
 0.00236000000,0.00480,-1.18000
 0.00236400000,0.00480,-1.18000
 0.00236800000,0.00480,-1.16000
 0.00237200000,0.00440,-1.18000
 0.00237600000,0.00480,-1.18000
 0.00238000000,0.00440,-1.16000
 0.00238400000,0.00440,-1.16000
 0.00238800000,0.00440,-1.16000
 0.00239200000,0.00440,-1.16000
 0.00239600000,0.00440,-1.16000
 0.00240000000,0.00440,-1.18000
 0.00240400000,0.00440,-1.16000
 0.00240800000,0.00440,-1.16000
 0.00241200000,0.00440,-1.16000
 0.00241600000,0.00440,-1.16000
 0.00242000000,0.00440,-1.16000
 0.00242400000,0.00440,-1.14000
 0.00242800000,0.00400,-1.16000
 0.00243200000,0.00400,-1.16000
 0.00243600000,0.00400,-1.16000
 0.00244000000,0.00400,-1.16000
 0.00244400000,0.00400,-1.16000
 0.00244800000,0.00400,-1.16000
